<svg width="1439" height="505" viewBox="0 0 1439 505" fill="none" xmlns="http://www.w3.org/2000/svg">
<path d="M1.53245 468.146L-7 -2L1439 4.01466V409.503C1346.15 513.256 1170.98 496.214 1096.2 496.214C1021.41 496.214 490.929 502.311 368.428 504.735C255.083 506.978 80.1756 495.005 1.53245 468.146Z" fill="#F0F4F9"/>
</svg>
